﻿{
	"__comment": "Created by TA3",
	"textures": {
		"particle": "blocks/particle",
		"texture": "blocks/al003",
		"texture1": "blocks/te67",
		"texture2": "blocks/te68",
		"texture3": "blocks/te69",
		"texture4": "blocks/te70",
		"texture5": "blocks/te71"
	},
	"elements": [ 	 
		{
			"__comment": "Box1",
			"from": [ 0, 19, -1 ],
			"to": [ 16, 25, 0 ],
			"faces": {
				"down": { "uv": [ 0, 0, 16, 1 ], "texture": "#texture" },
				"up": { "uv": [ 0, 15, 16, 16 ], "texture": "#texture" },
				"north": { "uv": [ 0, 7, 16, 13 ], "texture": "#texture" },
				"south": { "uv": [ 0, 7, 16, 13 ], "texture": "#texture" },
				"west": { "uv": [ 15, 7, 16, 13 ], "texture": "#texture" },
				"east": { "uv": [ 0, 7, 1, 13 ], "texture": "#texture" }
			}
		},
		{
			"__comment": "Box1",
			"from": [ -1, 7.5, 4 ],
			"to": [ 0, 23.5, 16 ],
			"faces": {
				"down": { "uv": [ 0, 0, 16, 1 ], "texture": "#texture" },
				"up": { "uv": [ 0, 15, 16, 16 ], "texture": "#texture" },
				"north": { "uv": [ 0, 15, 16, 16 ], "texture": "#texture" },
				"south": { "uv": [ 0, 15, 16, 16 ], "texture": "#texture" },
				"west": { "uv": [ 15, 15, 16, 16 ], "texture": "#texture" },
				"east": { "uv": [ 0, 15, 1, 16 ], "texture": "#texture" }
			}
		},
		{
			"__comment": "Box1",
			"from": [ 16, 9, 4 ],
			"to": [ 17, 25, 16 ],
			"faces": {
				"down": { "uv": [ 0, 0, 16, 1 ], "texture": "#texture" },
				"up": { "uv": [ 0, 15, 16, 16 ], "texture": "#texture" },
				"north": { "uv": [ 0, 15, 16, 16 ], "texture": "#texture" },
				"south": { "uv": [ 0, 15, 16, 16 ], "texture": "#texture" },
				"west": { "uv": [ 15, 15, 16, 16 ], "texture": "#texture" },
				"east": { "uv": [ 0, 15, 1, 16 ], "texture": "#texture" }
			}
		},
		{
			"__comment": "Box1",
			"from": [ 0, 5.5, 16 ],
			"to": [ 16, 28, 17 ],
			"faces": {
				"down": { "uv": [ 0, 0, 16, 1 ], "texture": "#texture" },
				"up": { "uv": [ 0, 15, 16, 16 ], "texture": "#texture" },
				"north": { "uv": [ 0, 15, 16, 16 ], "texture": "#texture" },
				"south": { "uv": [ 0, 15, 16, 16 ], "texture": "#texture" },
				"west": { "uv": [ 15, 15, 16, 16 ], "texture": "#texture" },
				"east": { "uv": [ 0, 15, 1, 16 ], "texture": "#texture" }
			}
		},
		{
			"__comment": "Box1",
			"from": [ 13, 13, -1 ],
			"to": [ 16, 19, 0 ],
			"faces": {
				"down": { "uv": [ 0, 0, 16, 1 ], "texture": "#texture" },
				"up": { "uv": [ 0, 15, 16, 16 ], "texture": "#texture" },
				"north": { "uv": [ 0, 0, 16, 6 ], "texture": "#texture" },
				"south": { "uv": [ 0, 0, 16, 6 ], "texture": "#texture" },
				"west": { "uv": [ 15, 0, 16, 6 ], "texture": "#texture" },
				"east": { "uv": [ 0, 0, 1, 6 ], "texture": "#texture" }
			}
		},
		{
			"__comment": "Box1",
			"from": [ 0, 13, -1 ],
			"to": [ 3, 19, 0 ],
			"faces": {
				"down": { "uv": [ 0, 0, 16, 1 ], "texture": "#texture" },
				"up": { "uv": [ 0, 15, 16, 16 ], "texture": "#texture" },
				"north": { "uv": [ 0, 0, 16, 6 ], "texture": "#texture" },
				"south": { "uv": [ 0, 0, 16, 6 ], "texture": "#texture" },
				"west": { "uv": [ 15, 0, 16, 6 ], "texture": "#texture" },
				"east": { "uv": [ 0, 0, 1, 6 ], "texture": "#texture" }
			}
		},
		{
			"__comment": "Box1",
			"from": [ 0, -5, -1 ],
			"to": [ 1.5, 13.5, 0 ],
			"faces": {
				"down": { "uv": [ 0, 0, 16, 1 ], "texture": "#texture" },
				"up": { "uv": [ 0, 15, 16, 16 ], "texture": "#texture" },
				"north": { "uv": [ 0, 0, 16, 6 ], "texture": "#texture" },
				"south": { "uv": [ 0, 0, 16, 6 ], "texture": "#texture" },
				"west": { "uv": [ 15, 0, 16, 6 ], "texture": "#texture" },
				"east": { "uv": [ 0, 0, 1, 6 ], "texture": "#texture" }
			}
		},
		{
			"__comment": "Box1",
			"from": [ 14.5, 9, -1 ],
			"to": [ 16, 15, 0 ],
			"faces": {
				"down": { "uv": [ 0, 0, 16, 1 ], "texture": "#texture" },
				"up": { "uv": [ 0, 15, 16, 16 ], "texture": "#texture" },
				"north": { "uv": [ 0, 0, 16, 6 ], "texture": "#texture" },
				"south": { "uv": [ 0, 0, 16, 6 ], "texture": "#texture" },
				"west": { "uv": [ 15, 0, 16, 6 ], "texture": "#texture" },
				"east": { "uv": [ 0, 0, 1, 6 ], "texture": "#texture" }
			}
		},
		{
			"__comment": "Box1",
			"from": [ 0, 13.5, -2 ],
			"to": [ 2.5, 25, -1 ],
			"faces": {
				"down": { "uv": [ 0, 0, 16, 1 ], "texture": "#texture" },
				"up": { "uv": [ 0, 15, 16, 16 ], "texture": "#texture" },
				"north": { "uv": [ 0, 0, 16, 6 ], "texture": "#texture" },
				"south": { "uv": [ 0, 0, 16, 6 ], "texture": "#texture" },
				"west": { "uv": [ 15, 0, 16, 6 ], "texture": "#texture" },
				"east": { "uv": [ 0, 0, 1, 6 ], "texture": "#texture" }
			}
		},
		{
			"__comment": "Box1",
			"from": [ 13.5, 13.5, -2 ],
			"to": [ 16, 25, -1 ],
			"faces": {
				"down": { "uv": [ 0, 0, 16, 1 ], "texture": "#texture" },
				"up": { "uv": [ 0, 15, 16, 16 ], "texture": "#texture" },
				"north": { "uv": [ 0, 0, 16, 6 ], "texture": "#texture" },
				"south": { "uv": [ 0, 0, 16, 6 ], "texture": "#texture" },
				"west": { "uv": [ 15, 0, 16, 6 ], "texture": "#texture" },
				"east": { "uv": [ 0, 0, 1, 6 ], "texture": "#texture" }
			}
		},
		{
			"__comment": "Box1",
			"from": [ 0, 19.5, -2 ],
			"to": [ 16, 25, -1 ],
			"faces": {
				"down": { "uv": [ 0, 0, 16, 1 ], "texture": "#texture" },
				"up": { "uv": [ 0, 15, 16, 16 ], "texture": "#texture" },
				"north": { "uv": [ 0, 0, 16, 6 ], "texture": "#texture" },
				"south": { "uv": [ 0, 0, 16, 6 ], "texture": "#texture" },
				"west": { "uv": [ 15, 0, 16, 6 ], "texture": "#texture" },
				"east": { "uv": [ 0, 0, 1, 6 ], "texture": "#texture" }
			}
		},
		{
			"__comment": "Box1",
			"from": [ 14.5, -5, -1 ],
			"to": [ 16, 13.5, 0 ],
			"faces": {
				"down": { "uv": [ 0, 0, 16, 1 ], "texture": "#texture" },
				"up": { "uv": [ 0, 15, 16, 16 ], "texture": "#texture" },
				"north": { "uv": [ 0, 0, 16, 6 ], "texture": "#texture" },
				"south": { "uv": [ 0, 0, 16, 6 ], "texture": "#texture" },
				"west": { "uv": [ 15, 0, 16, 6 ], "texture": "#texture" },
				"east": { "uv": [ 0, 0, 1, 6 ], "texture": "#texture" }
			}
		},
		{
			"__comment": "Box1",
			"from": [ -1, 16.5, 0 ],
			"to": [ 0, 25, 4.5 ],
			"faces": {
				"down": { "uv": [ 0, 0, 16, 1 ], "texture": "#texture" },
				"up": { "uv": [ 0, 15, 16, 16 ], "texture": "#texture" },
				"north": { "uv": [ 0, 15, 16, 16 ], "texture": "#texture" },
				"south": { "uv": [ 0, 15, 16, 16 ], "texture": "#texture" },
				"west": { "uv": [ 15, 15, 16, 16 ], "texture": "#texture" },
				"east": { "uv": [ 0, 15, 1, 16 ], "texture": "#texture" }
			}
		},
		{
			"__comment": "Box1",
			"from": [ 16, 16.5, 0 ],
			"to": [ 17, 25, 4.5 ],
			"faces": {
				"down": { "uv": [ 0, 0, 16, 1 ], "texture": "#texture" },
				"up": { "uv": [ 0, 15, 16, 16 ], "texture": "#texture" },
				"north": { "uv": [ 0, 15, 16, 16 ], "texture": "#texture" },
				"south": { "uv": [ 0, 15, 16, 16 ], "texture": "#texture" },
				"west": { "uv": [ 15, 15, 16, 16 ], "texture": "#texture" },
				"east": { "uv": [ 0, 15, 1, 16 ], "texture": "#texture" }
			}
		},
		{
			"__comment": "Box1",
			"from": [ 0, 25, 0 ],
			"to": [ 16, 26, 16 ],
			"faces": {
				"down": { "uv": [ 0, 15, 16, 16 ], "texture": "#texture" },
				"up": { "uv": [ 16, 16, 0, 15 ], "texture": "#texture" },
				"north": { "uv": [ 16, 1, 0, 0 ], "texture": "#texture" },
				"south": { "uv": [ 0, 15, 16, 16 ], "texture": "#texture" },
				"west": { "uv": [ 15, 15, 16, 16 ], "texture": "#texture", "rotation": 90 },
				"east": { "uv": [ 0, 15, 1, 16 ], "texture": "#texture", "rotation": 270 }
			}
		},
		{
			"__comment": "Box16",
			"from": [ -2.5, 25, -3 ],
			"to": [ 18.5, 30, 18.5 ],
			"faces": {
				"down": { "uv": [ 0, 0, 16, 16 ], "texture": "#texture1" },
				"up": { "uv": [ 0, 0, 16, 16 ], "texture": "#texture1" },
				"north": { "uv": [ 0, 0, 16, 4 ], "texture": "#texture1" },
				"south": { "uv": [ 0, 1, 16, 6 ], "texture": "#texture1", "rotation": 180 },
				"west": { "uv": [ 0, 0, 16, 4.5 ], "texture": "#texture1" },
				"east": { "uv": [ 0, 0, 16, 5 ], "texture": "#texture1" }
			}
		},
		{
			"__comment": "Box16",
			"from": [ -2, 23.5, -2.5 ],
			"to": [ 18, 28.5, 18 ],
			"faces": {
				"down": { "uv": [ 0, 0, 16, 16 ], "texture": "#texture2" },
				"up": { "uv": [ 0, 0, 16, 16 ], "texture": "#texture2" },
				"north": { "uv": [ 0, 0, 16, 4 ], "texture": "#texture2" },
				"south": { "uv": [ 0, 1, 16, 6 ], "texture": "#texture2", "rotation": 180 },
				"west": { "uv": [ 0, 0, 16, 4.5 ], "texture": "#texture2" },
				"east": { "uv": [ 0, 0, 16, 5 ], "texture": "#texture2" }
			}
		},
		{
			"__comment": "Box18",
			"from": [ -2, 16.5, 3 ],
			"to": [ -1.5, 23.5, 4.5 ],
			"faces": {
				"down": { "uv": [ 14, 11.5, 14.5, 13 ], "texture": "#texture3" },
				"up": { "uv": [ 14, 3, 14.5, 4.5 ], "texture": "#texture3" },
				"north": { "uv": [ 1.5, 8.5, 2, 15.5 ], "texture": "#texture3" },
				"south": { "uv": [ 14, 8.5, 14.5, 15.5 ], "texture": "#texture3" },
				"west": { "uv": [ 3, 8.5, 4.5, 15.5 ], "texture": "#texture3" },
				"east": { "uv": [ 11.5, 8.5, 13, 15.5 ], "texture": "#texture3" }
			}
		},
		{
			"__comment": "Box18",
			"from": [ -2, 16.5, 6 ],
			"to": [ -1.5, 23.5, 7.5 ],
			"faces": {
				"down": { "uv": [ 14, 11.5, 14.5, 13 ], "texture": "#texture5" },
				"up": { "uv": [ 14, 3, 14.5, 4.5 ], "texture": "#texture5" },
				"north": { "uv": [ 1.5, 1.5, 2, 16 ], "texture": "#texture5" },
				"south": { "uv": [ 14, 1.5, 14.5, 16 ], "texture": "#texture5" },
				"west": { "uv": [ 3, 1.5, 4.5, 16 ], "texture": "#texture5" },
				"east": { "uv": [ 11.5, 1.5, 13, 16 ], "texture": "#texture5" }
			}
		},
		{
			"__comment": "Box18",
			"from": [ -2, 16.5, 4.5 ],
			"to": [ -1.5, 23.5, 6 ],
			"faces": {
				"down": { "uv": [ 14, 11.5, 14.5, 13 ], "texture": "#texture4" },
				"up": { "uv": [ 14, 3, 14.5, 4.5 ], "texture": "#texture4" },
				"north": { "uv": [ 1.5, 1.5, 2, 16 ], "texture": "#texture4" },
				"south": { "uv": [ 14, 1.5, 14.5, 16 ], "texture": "#texture4" },
				"west": { "uv": [ 3, 1.5, 4.5, 16 ], "texture": "#texture4" },
				"east": { "uv": [ 11.5, 1.5, 13, 16 ], "texture": "#texture4" }
			}
		},
		{
			"__comment": "Box18",
			"from": [ -7, 12, 3 ],
			"to": [ -6.5, 19, 4.5 ],
			"rotation": { "origin": [ -7, 12, 3 ], "axis": "z", "angle": -45 },
			"faces": {
				"down": { "uv": [ 14, 11.5, 14.5, 13 ], "texture": "#texture3" },
				"up": { "uv": [ 14, 3, 14.5, 4.5 ], "texture": "#texture3" },
				"north": { "uv": [ 1.5, 1.5, 2, 8.5 ], "texture": "#texture3" },
				"south": { "uv": [ 14, 1.5, 14.5, 8.5 ], "texture": "#texture3" },
				"west": { "uv": [ 3, 1.5, 4.5, 8.5 ], "texture": "#texture3" },
				"east": { "uv": [ 11.5, 1.5, 13, 8.5 ], "texture": "#texture3" }
			}
		},
		{
			"__comment": "Box18",
			"from": [ -7, 12, 6 ],
			"to": [ -6.5, 19, 7.5 ],
			"rotation": { "origin": [ -7, 12, 3 ], "axis": "z", "angle": -45 },
			"faces": {
				"down": { "uv": [ 14, 11.5, 14.5, 13 ], "texture": "#texture5" },
				"up": { "uv": [ 14, 3, 14.5, 4.5 ], "texture": "#texture5" },
				"north": { "uv": [ 1.5, 1.5, 2, 16 ], "texture": "#texture5" },
				"south": { "uv": [ 14, 1.5, 14.5, 16 ], "texture": "#texture5" },
				"west": { "uv": [ 3, 1.5, 4.5, 16 ], "texture": "#texture5" },
				"east": { "uv": [ 11.5, 1.5, 13, 16 ], "texture": "#texture5" }
			}
		},
		{
			"__comment": "Box18",
			"from": [ -7, 12, 4.5 ],
			"to": [ -6.5, 19, 6 ],
			"rotation": { "origin": [ -7, 12, 3 ], "axis": "z", "angle": -45 },
			"faces": {
				"down": { "uv": [ 14, 11.5, 14.5, 13 ], "texture": "#texture4" },
				"up": { "uv": [ 14, 3, 14.5, 4.5 ], "texture": "#texture4" },
				"north": { "uv": [ 1.5, 1.5, 2, 16 ], "texture": "#texture4" },
				"south": { "uv": [ 14, 1.5, 14.5, 16 ], "texture": "#texture4" },
				"west": { "uv": [ 3, 1.5, 4.5, 16 ], "texture": "#texture4" },
				"east": { "uv": [ 11.5, 1.5, 13, 16 ], "texture": "#texture4" }
			}
		},
		{
			"__comment": "Box18",
			"from": [ -7, 1.1394, 10.2648 ],
			"to": [ -6.5, 11.1394, 11.7648 ],
			"rotation": { "origin": [ -7, 0.5, 7 ], "axis": "x", "angle": -22.5 },
			"faces": {
				"down": { "uv": [ 14, 11.5, 14.5, 13 ], "texture": "#texture5" },
				"up": { "uv": [ 14, 3, 14.5, 4.5 ], "texture": "#texture5" },
				"north": { "uv": [ 1.5, 1.5, 2, 16 ], "texture": "#texture5" },
				"south": { "uv": [ 14, 1.5, 14.5, 16 ], "texture": "#texture5" },
				"west": { "uv": [ 3, 1.5, 4.5, 16 ], "texture": "#texture5" },
				"east": { "uv": [ 11.5, 1.5, 13, 16 ], "texture": "#texture5" }
			}
		},
		{
			"__comment": "Box18",
			"from": [ -7, -1.3928, 9.9268 ],
			"to": [ -6.5, 12.1072, 11.4268 ],
			"rotation": { "origin": [ -7, -2, 8.5 ], "axis": "x", "angle": -22.5 },
			"faces": {
				"down": { "uv": [ 14, 11.5, 14.5, 13 ], "texture": "#texture4" },
				"up": { "uv": [ 14, 3, 14.5, 4.5 ], "texture": "#texture4" },
				"north": { "uv": [ 1.5, 1.5, 2, 16 ], "texture": "#texture4" },
				"south": { "uv": [ 14, 1.5, 14.5, 16 ], "texture": "#texture4" },
				"west": { "uv": [ 3, 1.5, 4.5, 16 ], "texture": "#texture4" },
				"east": { "uv": [ 11.5, 1.5, 13, 16 ], "texture": "#texture4" }
			}
		},
		{
			"__comment": "Box18",
			"from": [ -7, -3.9169, 9.5344 ],
			"to": [ -6.5, 13.0831, 11.0344 ],
			"rotation": { "origin": [ -7, -4, 9.5 ], "axis": "x", "angle": -22.5 },
			"faces": {
				"down": { "uv": [ 14, 11.5, 14.5, 13 ], "texture": "#texture3" },
				"up": { "uv": [ 14, 3, 14.5, 4.5 ], "texture": "#texture3" },
				"north": { "uv": [ 1.5, 1.5, 2, 8.5 ], "texture": "#texture3" },
				"south": { "uv": [ 14, 1.5, 14.5, 8.5 ], "texture": "#texture3" },
				"west": { "uv": [ 3, 1.5, 4.5, 8.5 ], "texture": "#texture3" },
				"east": { "uv": [ 11.5, 1.5, 13, 8.5 ], "texture": "#texture3" }
			}
		},
		{
			"__comment": "Box1",
			"from": [ -1, 2, 9 ],
			"to": [ 0, 23.5, 16 ],
			"faces": {
				"down": { "uv": [ 0, 0, 16, 1 ], "texture": "#texture" },
				"up": { "uv": [ 0, 15, 16, 16 ], "texture": "#texture" },
				"north": { "uv": [ 0, 15, 16, 16 ], "texture": "#texture" },
				"south": { "uv": [ 0, 15, 16, 16 ], "texture": "#texture" },
				"west": { "uv": [ 15, 15, 16, 16 ], "texture": "#texture" },
				"east": { "uv": [ 0, 15, 1, 16 ], "texture": "#texture" }
			}
		},
		{
			"__comment": "Box1",
			"from": [ -1, -13.5, 13 ],
			"to": [ 0, 23.5, 16 ],
			"faces": {
				"down": { "uv": [ 0, 0, 16, 1 ], "texture": "#texture" },
				"up": { "uv": [ 0, 15, 16, 16 ], "texture": "#texture" },
				"north": { "uv": [ 0, 15, 16, 16 ], "texture": "#texture" },
				"south": { "uv": [ 0, 15, 16, 16 ], "texture": "#texture" },
				"west": { "uv": [ 15, 15, 16, 16 ], "texture": "#texture" },
				"east": { "uv": [ 0, 15, 1, 16 ], "texture": "#texture" }
			}
		},
		{
			"__comment": "Box1",
			"from": [ 16, 2, 9 ],
			"to": [ 17, 23.5, 16 ],
			"faces": {
				"down": { "uv": [ 0, 0, 16, 1 ], "texture": "#texture" },
				"up": { "uv": [ 0, 15, 16, 16 ], "texture": "#texture" },
				"north": { "uv": [ 0, 15, 16, 16 ], "texture": "#texture" },
				"south": { "uv": [ 0, 15, 16, 16 ], "texture": "#texture" },
				"west": { "uv": [ 15, 15, 16, 16 ], "texture": "#texture" },
				"east": { "uv": [ 0, 15, 1, 16 ], "texture": "#texture" }
			}
		},
		{
			"__comment": "Box1",
			"from": [ 16, -13.5, 13 ],
			"to": [ 17, 23.5, 16 ],
			"faces": {
				"down": { "uv": [ 0, 0, 16, 1 ], "texture": "#texture" },
				"up": { "uv": [ 0, 15, 16, 16 ], "texture": "#texture" },
				"north": { "uv": [ 0, 15, 16, 16 ], "texture": "#texture" },
				"south": { "uv": [ 0, 15, 16, 16 ], "texture": "#texture" },
				"west": { "uv": [ 15, 15, 16, 16 ], "texture": "#texture" },
				"east": { "uv": [ 0, 15, 1, 16 ], "texture": "#texture" }
			}
		},
		{
			"__comment": "Box1",
			"from": [ 0, -6, 16 ],
			"to": [ 3.5, 16.5, 17 ],
			"faces": {
				"down": { "uv": [ 0, 0, 16, 1 ], "texture": "#texture" },
				"up": { "uv": [ 0, 15, 16, 16 ], "texture": "#texture" },
				"north": { "uv": [ 0, 15, 16, 16 ], "texture": "#texture" },
				"south": { "uv": [ 0, 15, 16, 16 ], "texture": "#texture" },
				"west": { "uv": [ 15, 15, 16, 16 ], "texture": "#texture" },
				"east": { "uv": [ 0, 15, 1, 16 ], "texture": "#texture" }
			}
		},
		{
			"__comment": "Box1",
			"from": [ 12.5, -5.5, 16 ],
			"to": [ 16, 17, 17 ],
			"faces": {
				"down": { "uv": [ 0, 0, 16, 1 ], "texture": "#texture" },
				"up": { "uv": [ 0, 15, 16, 16 ], "texture": "#texture" },
				"north": { "uv": [ 0, 15, 16, 16 ], "texture": "#texture" },
				"south": { "uv": [ 0, 15, 16, 16 ], "texture": "#texture" },
				"west": { "uv": [ 15, 15, 16, 16 ], "texture": "#texture" },
				"east": { "uv": [ 0, 15, 1, 16 ], "texture": "#texture" }
			}
		},
		{
			"__comment": "Box1",
			"from": [ 2, 8.5, 17 ],
			"to": [ 13.5, 23.5, 18 ],
			"faces": {
				"down": { "uv": [ 0, 0, 16, 1 ], "texture": "#texture" },
				"up": { "uv": [ 0, 15, 16, 16 ], "texture": "#texture" },
				"north": { "uv": [ 0, 15, 16, 16 ], "texture": "#texture" },
				"south": { "uv": [ 0, 15, 16, 16 ], "texture": "#texture" },
				"west": { "uv": [ 15, 15, 16, 16 ], "texture": "#texture" },
				"east": { "uv": [ 0, 15, 1, 16 ], "texture": "#texture" }
			}
		},
		{
			"__comment": "Box1",
			"from": [ 0, -2, 17 ],
			"to": [ 3, 23.5, 18 ],
			"faces": {
				"down": { "uv": [ 0, 0, 16, 1 ], "texture": "#texture" },
				"up": { "uv": [ 0, 15, 16, 16 ], "texture": "#texture" },
				"north": { "uv": [ 0, 15, 16, 16 ], "texture": "#texture" },
				"south": { "uv": [ 0, 15, 16, 16 ], "texture": "#texture" },
				"west": { "uv": [ 15, 15, 16, 16 ], "texture": "#texture" },
				"east": { "uv": [ 0, 15, 1, 16 ], "texture": "#texture" }
			}
		},
		{
			"__comment": "Box1",
			"from": [ 13, -2, 17 ],
			"to": [ 16, 23.5, 18 ],
			"faces": {
				"down": { "uv": [ 0, 0, 16, 1 ], "texture": "#texture" },
				"up": { "uv": [ 0, 15, 16, 16 ], "texture": "#texture" },
				"north": { "uv": [ 0, 15, 16, 16 ], "texture": "#texture" },
				"south": { "uv": [ 0, 15, 16, 16 ], "texture": "#texture" },
				"west": { "uv": [ 15, 15, 16, 16 ], "texture": "#texture" },
				"east": { "uv": [ 0, 15, 1, 16 ], "texture": "#texture" }
			}
		},
		{
			"__comment": "Box1",
			"from": [ 4, 8.5, 17.5 ],
			"to": [ 12, 23.5, 18.5 ],
			"faces": {
				"down": { "uv": [ 0, 0, 16, 1 ], "texture": "#texture" },
				"up": { "uv": [ 0, 15, 16, 16 ], "texture": "#texture" },
				"north": { "uv": [ 0, 15, 16, 16 ], "texture": "#texture" },
				"south": { "uv": [ 0, 15, 16, 16 ], "texture": "#texture" },
				"west": { "uv": [ 15, 15, 16, 16 ], "texture": "#texture" },
				"east": { "uv": [ 0, 15, 1, 16 ], "texture": "#texture" }
			}
		},
		{
			"__comment": "Box1",
			"from": [ -2, 5, 11 ],
			"to": [ -1, 23.5, 16 ],
			"faces": {
				"down": { "uv": [ 0, 0, 16, 1 ], "texture": "#texture" },
				"up": { "uv": [ 0, 15, 16, 16 ], "texture": "#texture" },
				"north": { "uv": [ 0, 15, 16, 16 ], "texture": "#texture" },
				"south": { "uv": [ 0, 15, 16, 16 ], "texture": "#texture" },
				"west": { "uv": [ 15, 15, 16, 16 ], "texture": "#texture" },
				"east": { "uv": [ 0, 15, 1, 16 ], "texture": "#texture" }
			}
		},
		{
			"__comment": "Box1",
			"from": [ -2, -16, 15 ],
			"to": [ -1, 23.5, 17 ],
			"faces": {
				"down": { "uv": [ 0, 0, 16, 1 ], "texture": "#texture" },
				"up": { "uv": [ 0, 15, 16, 16 ], "texture": "#texture" },
				"north": { "uv": [ 0, 15, 16, 16 ], "texture": "#texture" },
				"south": { "uv": [ 0, 15, 16, 16 ], "texture": "#texture" },
				"west": { "uv": [ 15, 15, 16, 16 ], "texture": "#texture" },
				"east": { "uv": [ 0, 15, 1, 16 ], "texture": "#texture" }
			}
		},
		{
			"__comment": "Box1",
			"from": [ -2, 9.5, 8 ],
			"to": [ -1, 23.5, 13 ],
			"faces": {
				"down": { "uv": [ 0, 0, 16, 1 ], "texture": "#texture" },
				"up": { "uv": [ 0, 15, 16, 16 ], "texture": "#texture" },
				"north": { "uv": [ 0, 15, 16, 16 ], "texture": "#texture" },
				"south": { "uv": [ 0, 15, 16, 16 ], "texture": "#texture" },
				"west": { "uv": [ 15, 15, 16, 16 ], "texture": "#texture" },
				"east": { "uv": [ 0, 15, 1, 16 ], "texture": "#texture" }
			}
		},
		{
			"__comment": "Box1",
			"from": [ 17, 9.5, 8 ],
			"to": [ 18, 23.5, 13 ],
			"faces": {
				"down": { "uv": [ 0, 0, 16, 1 ], "texture": "#texture" },
				"up": { "uv": [ 0, 15, 16, 16 ], "texture": "#texture" },
				"north": { "uv": [ 0, 15, 16, 16 ], "texture": "#texture" },
				"south": { "uv": [ 0, 15, 16, 16 ], "texture": "#texture" },
				"west": { "uv": [ 15, 15, 16, 16 ], "texture": "#texture" },
				"east": { "uv": [ 0, 15, 1, 16 ], "texture": "#texture" }
			}
		},
		{
			"__comment": "Box1",
			"from": [ 17, 5, 11 ],
			"to": [ 18, 23.5, 16 ],
			"faces": {
				"down": { "uv": [ 0, 0, 16, 1 ], "texture": "#texture" },
				"up": { "uv": [ 0, 15, 16, 16 ], "texture": "#texture" },
				"north": { "uv": [ 0, 15, 16, 16 ], "texture": "#texture" },
				"south": { "uv": [ 0, 15, 16, 16 ], "texture": "#texture" },
				"west": { "uv": [ 15, 15, 16, 16 ], "texture": "#texture" },
				"east": { "uv": [ 0, 15, 1, 16 ], "texture": "#texture" }
			}
		},
		{
			"__comment": "Box1",
			"from": [ 17, -16, 15 ],
			"to": [ 18, 23.5, 17 ],
			"faces": {
				"down": { "uv": [ 0, 0, 16, 1 ], "texture": "#texture" },
				"up": { "uv": [ 0, 15, 16, 16 ], "texture": "#texture" },
				"north": { "uv": [ 0, 15, 16, 16 ], "texture": "#texture" },
				"south": { "uv": [ 0, 15, 16, 16 ], "texture": "#texture" },
				"west": { "uv": [ 15, 15, 16, 16 ], "texture": "#texture" },
				"east": { "uv": [ 0, 15, 1, 16 ], "texture": "#texture" }
			}
		}
	],
	"display": {
		"thirdperson_righthand": {
			"scale":  [ 0.0001, 0.0001, 0.0001 ]
		},
		"thirdperson_lefthand": {
			"scale":  [ 0.0001, 0.0001, 0.0001 ]
		},
		"firstperson_righthand": {
			"scale":  [ 0.0001, 0.0001, 0.0001 ]
		},
		"firstperson_lefthand": {
			"scale":  [ 0.0001, 0.0001, 0.0001 ]
		},
		"gui": {
			"rotation":  [ 14, 137, 0 ],
			"scale":  [ 0.5, 0.5, 0.5 ]
		},
		"head": {
			"translation":  [ 0, -7.884, 0 ],
			"scale":  [ 0.9, 0.9, 0.9 ]
		},
		"ground": {
			"translation":  [ 0, 8.8115, 0 ],
			"scale":  [ 0.4, 0.4, 0.4 ]
		},
		"fixed": {
			"scale":  [ 0.6, 0.6, 0.6 ]
		}
	}
}