﻿{
	"__comment": "Created by TA3",
	"textures": {
		"particle": "blocks/particle",
		"texture": "blocks/al003"
	},
	"elements": [ 	 
		{
			"__comment": "Box1",
			"from": [ 0, 10, -1 ],
			"to": [ 16, 16, 0 ],
			"faces": {
				"down": { "uv": [ 0, 0, 16, 1 ], "texture": "#texture" },
				"up": { "uv": [ 0, 15, 16, 16 ], "texture": "#texture" },
				"north": { "uv": [ 0, 0, 16, 6 ], "texture": "#texture" },
				"south": { "uv": [ 0, 0, 16, 6 ], "texture": "#texture" },
				"west": { "uv": [ 15, 0, 16, 6 ], "texture": "#texture" },
				"east": { "uv": [ 0, 0, 1, 6 ], "texture": "#texture" }
			}
		},
		{
			"__comment": "Box1",
			"from": [ -1, 0, 0 ],
			"to": [ 0, 16, 16 ],
			"faces": {
				"down": { "uv": [ 0, 0, 16, 1 ], "texture": "#texture" },
				"up": { "uv": [ 0, 15, 16, 16 ], "texture": "#texture" },
				"north": { "uv": [ 0, 15, 16, 16 ], "texture": "#texture" },
				"south": { "uv": [ 0, 15, 16, 16 ], "texture": "#texture" },
				"west": { "uv": [ 15, 15, 16, 16 ], "texture": "#texture" },
				"east": { "uv": [ 0, 15, 1, 16 ], "texture": "#texture" }
			}
		},
		{
			"__comment": "Box1",
			"from": [ 16, 0, 0 ],
			"to": [ 17, 16, 16 ],
			"faces": {
				"down": { "uv": [ 0, 0, 16, 1 ], "texture": "#texture" },
				"up": { "uv": [ 0, 15, 16, 16 ], "texture": "#texture" },
				"north": { "uv": [ 0, 15, 16, 16 ], "texture": "#texture" },
				"south": { "uv": [ 0, 15, 16, 16 ], "texture": "#texture" },
				"west": { "uv": [ 15, 15, 16, 16 ], "texture": "#texture" },
				"east": { "uv": [ 0, 15, 1, 16 ], "texture": "#texture" }
			}
		},
		{
			"__comment": "Box1",
			"from": [ 0, 0, 16 ],
			"to": [ 16, 16, 17 ],
			"faces": {
				"down": { "uv": [ 0, 0, 16, 1 ], "texture": "#texture" },
				"up": { "uv": [ 0, 15, 16, 16 ], "texture": "#texture" },
				"north": { "uv": [ 0, 15, 16, 16 ], "texture": "#texture" },
				"south": { "uv": [ 0, 15, 16, 16 ], "texture": "#texture" },
				"west": { "uv": [ 15, 15, 16, 16 ], "texture": "#texture" },
				"east": { "uv": [ 0, 15, 1, 16 ], "texture": "#texture" }
			}
		},
		{
			"__comment": "Box1",
			"from": [ 13, 4, -1 ],
			"to": [ 16, 10, 0 ],
			"faces": {
				"down": { "uv": [ 0, 0, 16, 1 ], "texture": "#texture" },
				"up": { "uv": [ 0, 15, 16, 16 ], "texture": "#texture" },
				"north": { "uv": [ 0, 0, 16, 6 ], "texture": "#texture" },
				"south": { "uv": [ 0, 0, 16, 6 ], "texture": "#texture" },
				"west": { "uv": [ 15, 0, 16, 6 ], "texture": "#texture" },
				"east": { "uv": [ 0, 0, 1, 6 ], "texture": "#texture" }
			}
		},
		{
			"__comment": "Box1",
			"from": [ 0, 4, -1 ],
			"to": [ 3, 10, 0 ],
			"faces": {
				"down": { "uv": [ 0, 0, 16, 1 ], "texture": "#texture" },
				"up": { "uv": [ 0, 15, 16, 16 ], "texture": "#texture" },
				"north": { "uv": [ 0, 0, 16, 6 ], "texture": "#texture" },
				"south": { "uv": [ 0, 0, 16, 6 ], "texture": "#texture" },
				"west": { "uv": [ 15, 0, 16, 6 ], "texture": "#texture" },
				"east": { "uv": [ 0, 0, 1, 6 ], "texture": "#texture" }
			}
		}
	]
}