{
	"__comment": "Designed by Repuran with Cubik Studio - https://cubik.studio",
	"textures": {
		"particle": "blocks/particle",
		"texture": "blocks/log_big_oak",
		"texture1": "blocks/wool_colored_white"
	},
	"elements": [ 	 
		{
			"__comment": "Box1",
			"from": [ 0.625, 0, 7.625 ],
			"to": [ 1.5, 16, 8.5 ],
			"faces": {
				"down": { "uv": [ 0.625, 7.5, 1.5, 8.375 ], "texture": "#texture" },
				"up": { "uv": [ 0.625, 7.625, 1.5, 8.5 ], "texture": "#texture" },
				"north": { "uv": [ 14.5, 0, 15.375, 16 ], "texture": "#texture" },
				"south": { "uv": [ 0.625, 0, 1.5, 16 ], "texture": "#texture" },
				"west": { "uv": [ 7.625, 0, 8.5, 16 ], "texture": "#texture" },
				"east": { "uv": [ 7.5, 0, 8.375, 16 ], "texture": "#texture" }
			}
		},
		{
			"__comment": "Box1",
			"from": [ 0.625, 16, 7.625 ],
			"to": [ 1.5, 21.25, 8.5 ],
			"rotation": { "origin": [ 0.625, 16, 7.625 ], "axis": "z", "angle": -22.5 },
			"faces": {
				"down": { "uv": [ 0.625, 7.5, 1.5, 8.375 ], "texture": "#texture" },
				"up": { "uv": [ 0.625, 7.625, 1.5, 8.5 ], "texture": "#texture" },
				"north": { "uv": [ 14.5, 0, 15.375, 16 ], "texture": "#texture" },
				"south": { "uv": [ 0.625, 0, 1.5, 16 ], "texture": "#texture" },
				"west": { "uv": [ 7.625, 0, 8.5, 16 ], "texture": "#texture" },
				"east": { "uv": [ 7.5, 0, 8.375, 16 ], "texture": "#texture" }
			}
		},
		{
			"__comment": "Box1",
			"from": [ 2.6484, -4.8576, 7.625 ],
			"to": [ 3.5234, 0.3924003, 8.5 ],
			"rotation": { "origin": [ 2.625, -4.875, 7.625 ], "axis": "z", "angle": 22.5 },
			"faces": {
				"down": { "uv": [ 0.625, 7.5, 1.5, 8.375 ], "texture": "#texture" },
				"up": { "uv": [ 0.625, 7.625, 1.5, 8.5 ], "texture": "#texture" },
				"north": { "uv": [ 14.5, 0, 15.375, 16 ], "texture": "#texture" },
				"south": { "uv": [ 0.625, 0, 1.5, 16 ], "texture": "#texture" },
				"west": { "uv": [ 7.625, 0, 8.5, 16 ], "texture": "#texture" },
				"east": { "uv": [ 7.5, 0, 8.375, 16 ], "texture": "#texture" }
			}
		},
		{
			"__comment": "Box1",
			"from": [ 5.4104, -7.5826, 7.625 ],
			"to": [ 6.2854, -3.7076, 8.5 ],
			"rotation": { "origin": [ 5.375, -7.625, 7.625 ], "axis": "z", "angle": 45 },
			"faces": {
				"down": { "uv": [ 0.625, 7.5, 1.5, 8.375 ], "texture": "#texture" },
				"up": { "uv": [ 0.625, 7.625, 1.5, 8.5 ], "texture": "#texture" },
				"north": { "uv": [ 14.5, 0, 15.375, 16 ], "texture": "#texture" },
				"south": { "uv": [ 0.625, 0, 1.5, 16 ], "texture": "#texture" },
				"west": { "uv": [ 7.625, 0, 8.5, 16 ], "texture": "#texture" },
				"east": { "uv": [ 7.5, 0, 8.375, 16 ], "texture": "#texture" }
			}
		},
		{
			"__comment": "Box1",
			"from": [ 2.6533, 20.8679, 7.625 ],
			"to": [ 3.5283, 24.7429, 8.5 ],
			"rotation": { "origin": [ 2.625, 20.875, 7.625 ], "axis": "z", "angle": -45 },
			"faces": {
				"down": { "uv": [ 0.625, 7.5, 1.5, 8.375 ], "texture": "#texture" },
				"up": { "uv": [ 0.625, 7.625, 1.5, 8.5 ], "texture": "#texture" },
				"north": { "uv": [ 14.5, 0, 15.375, 16 ], "texture": "#texture" },
				"south": { "uv": [ 0.625, 0, 1.5, 16 ], "texture": "#texture" },
				"west": { "uv": [ 7.625, 0, 8.5, 16 ], "texture": "#texture" },
				"east": { "uv": [ 7.5, 0, 8.375, 16 ], "texture": "#texture" }
			}
		},
		{
			"__comment": "Box1",
			"from": [ 5.4536, 24.2363, 7.625 ],
			"to": [ 9.3286, 25.1113, 8.5 ],
			"rotation": { "origin": [ 9.25, 24.125, 7.625 ], "axis": "z", "angle": 22.5 },
			"faces": {
				"down": { "uv": [ 8.5, 16, 7.625, 0 ], "texture": "#texture", "rotation": 90 },
				"up": { "uv": [ 7.5, 0, 8.375, 16 ], "texture": "#texture", "rotation": 270 },
				"north": { "uv": [ 14.5, 0, 15.375, 16 ], "texture": "#texture", "rotation": 90 },
				"south": { "uv": [ 0.625, 0, 1.5, 16 ], "texture": "#texture", "rotation": 270 },
				"west": { "uv": [ 0.625, 7.625, 1.5, 8.5 ], "texture": "#texture", "rotation": 270 },
				"east": { "uv": [ 1.5, 8.375, 0.625, 7.5 ], "texture": "#texture", "rotation": 90 }
			}
		},
		{
			"__comment": "Box1",
			"from": [ 5.7674, -7.6979, 7.625 ],
			"to": [ 9.6424, -6.8229, 8.5 ],
			"rotation": { "origin": [ 5.875, -6.625, 7.625 ], "axis": "z", "angle": -22.5 },
			"faces": {
				"down": { "uv": [ 7.5, 0, 8.375, 16 ], "texture": "#texture", "rotation": 90 },
				"up": { "uv": [ 8.5, 16, 7.625, 0 ], "texture": "#texture", "rotation": 270 },
				"north": { "uv": [ 15.375, 16, 14.5, 0 ], "texture": "#texture", "rotation": 90 },
				"south": { "uv": [ 1.5, 16, 0.625, 0 ], "texture": "#texture", "rotation": 270 },
				"west": { "uv": [ 1.5, 8.375, 0.625, 7.5 ], "texture": "#texture", "rotation": 270 },
				"east": { "uv": [ 0.625, 7.625, 1.5, 8.5 ], "texture": "#texture", "rotation": 90 }
			}
		},
		{
			"__comment": "Box1",
			"from": [ 9.337399, -9.2894, 7.625 ],
			"to": [ 11.9624, -8.4144, 8.5 ],
			"rotation": { "origin": [ 9.5, -8.25, 7.625 ], "axis": "z", "angle": -45 },
			"faces": {
				"down": { "uv": [ 7.5, 0, 8.375, 16 ], "texture": "#texture", "rotation": 90 },
				"up": { "uv": [ 8.5, 16, 7.625, 0 ], "texture": "#texture", "rotation": 270 },
				"north": { "uv": [ 15.375, 16, 14.5, 0 ], "texture": "#texture", "rotation": 90 },
				"south": { "uv": [ 1.5, 16, 0.625, 0 ], "texture": "#texture", "rotation": 270 },
				"west": { "uv": [ 1.5, 8.375, 0.625, 7.5 ], "texture": "#texture", "rotation": 270 },
				"east": { "uv": [ 0.625, 7.625, 1.5, 8.5 ], "texture": "#texture", "rotation": 90 }
			}
		},
		{
			"__comment": "Box1",
			"from": [ 8.473, 24.0537, 7.625 ],
			"to": [ 11.098, 24.9287, 8.5 ],
			"rotation": { "origin": [ 8.625, 25.125, 7.625 ], "axis": "z", "angle": 45 },
			"faces": {
				"down": { "uv": [ 7.5, 0, 8.375, 16 ], "texture": "#texture", "rotation": 90 },
				"up": { "uv": [ 8.5, 16, 7.625, 0 ], "texture": "#texture", "rotation": 270 },
				"north": { "uv": [ 15.375, 16, 14.5, 0 ], "texture": "#texture", "rotation": 90 },
				"south": { "uv": [ 1.5, 16, 0.625, 0 ], "texture": "#texture", "rotation": 270 },
				"west": { "uv": [ 1.5, 8.375, 0.625, 7.5 ], "texture": "#texture", "rotation": 270 },
				"east": { "uv": [ 0.625, 7.625, 1.5, 8.5 ], "texture": "#texture", "rotation": 90 }
			}
		},
		{
			"__comment": "Box10",
			"from": [ 10.375, -9.5, 8 ],
			"to": [ 10.5, 25.5, 8.125 ],
			"faces": {
				"down": { "uv": [ 10.375, 7.875, 10.5, 8 ], "texture": "#texture1" },
				"up": { "uv": [ 10.375, 8, 10.5, 8.125 ], "texture": "#texture1" },
				"north": { "uv": [ 5.5, 0, 5.625, 16 ], "texture": "#texture1" },
				"south": { "uv": [ 10.375, 0, 10.5, 16 ], "texture": "#texture1" },
				"west": { "uv": [ 8, 0, 8.125, 16 ], "texture": "#texture1" },
				"east": { "uv": [ 7.875, 0, 8, 16 ], "texture": "#texture1" }
			}
		},
		{
			"__comment": "Box1",
			"from": [ 0.5, 2.75, 7.5 ],
			"to": [ 1.625, 13.375, 8.625 ],
			"faces": {
				"down": { "uv": [ 0.5, 7.375, 1.625, 8.5 ], "texture": "#texture1" },
				"up": { "uv": [ 0.5, 7.5, 1.625, 8.625 ], "texture": "#texture1" },
				"north": { "uv": [ 14.375, 2.625, 15.5, 13.25 ], "texture": "#texture1" },
				"south": { "uv": [ 0.5, 2.625, 1.625, 13.25 ], "texture": "#texture1" },
				"west": { "uv": [ 7.5, 2.625, 8.625, 13.25 ], "texture": "#texture1" },
				"east": { "uv": [ 7.375, 2.625, 8.5, 13.25 ], "texture": "#texture1" }
			}
		}
	],
	"display": {
		"thirdperson_righthand": {
			"rotation":  [ -19, -90, 0 ],
			"translation":  [ 0, -3.478, 7 ],
			"scale":  [ 0.7, 0.7, 0.7 ]
		},
		"thirdperson_lefthand": {
			"rotation":  [ -19, 90, 0 ],
			"translation":  [ 0, -3.478, 7 ],
			"scale":  [ 0.7, 0.7, 0.7 ]
		},
		"firstperson_righthand": {
			"rotation":  [ 0, -90, -10 ],
			"translation":  [ 0, 3, 0 ],
			"scale":  [ 0.7, 0.7, 0.7 ]
		},
		"firstperson_lefthand": {
			"rotation":  [ 0, 90, 10 ],
			"translation":  [ 0, 3, 0 ],
			"scale":  [ 0.7, 0.7, 0.7 ]
		},
		"gui": {
			"rotation":  [ 0, 25, -45 ],
			"scale":  [ 0.5, 0.5, 0.5 ]
		},
		"ground": {
			"rotation":  [ 70, 0, 0 ],
			"translation":  [ 0, 5, 0 ]
		}
	}
}