﻿{
	"parent": "item/handheld",
	"textures": {
		"layer0": "items/diamond_axe"
	},
	"overrides": [
		{ "predicate": {"damaged": 0, "damage": 0}, "model": "item/diamond_axe"},

		{ "predicate": {"damaged": 0, "damage": 0.00064020486555697821}, "model": "block/hand_customblock_0"},
		{ "predicate": {"damaged": 0, "damage": 0.0012804097311139564}, "model": "block/hand_customblock_1"},
		{ "predicate": {"damaged": 0, "damage": 0.0019206145966709346}, "model": "block/hand_customblock_2"},
		{ "predicate": {"damaged": 0, "damage": 0.0025608194622279128}, "model": "block/hand_customblock_3"},
		{ "predicate": {"damaged": 0, "damage": 0.003201024327784891}, "model": "block/hand_customblock_4"},
		{ "predicate": {"damaged": 0, "damage": 0.0038412291933418692}, "model": "block/hand_customblock_5"},
		{ "predicate": {"damaged": 0, "damage": 0.0044814340588988479}, "model": "block/hand_customblock_6"},
		{ "predicate": {"damaged": 0, "damage": 0.0051216389244558257}, "model": "block/hand_customblock_7"},
		{ "predicate": {"damaged": 0, "damage": 0.0057618437900128043}, "model": "block/hand_customblock_8"},

		{ "predicate": {"damaged": 1, "damage": 0}, "model": "item/diamond_axe"}
	]
}
